Machine learning in R - Day 2
…
# Toy example for regression

.pull-left[

```r
set.seed(54321) # reproducibility
dfr <- tibble(
  x = seq(0, 2*pi, length.out = 500),
  m = 2*sin(x),
  y = m + rnorm(length(x), sd = 1)
  )
```

```
## # A tibble: 500 x 3
##         x      m      y
##     <dbl>  <dbl>  <dbl>
##  1 0      0      -0.179
##  2 0.0126 0.0252 -0.903
##  3 0.0252 0.0504 -0.734
##  4 0.0378 0.0755 -1.58 
##  5 0.0504 0.101  -0.307
##  6 0.0630 0.126  -0.970
##  7 0.0755 0.151  -1.54 
##  8 0.0881 0.176   2.69 
##  9 0.101  0.201   1.60 
## 10 0.113  0.226   0.406
## # … with 490 more rows
```
…
```r
# Let's have a look at the sampled data
*dfr_b1 %>% dplyr::arrange(x) %>% print(n = 5)
*dfr_b2 %>% dplyr::arrange(x) %>% print(n = 5)
```
]

.pull-right[

```
## # A tibble: 500 x 3
##        x      m      y
##    <dbl>  <dbl>  <dbl>
## 1 0.0252 0.0504 -0.734
## 2 0.0252 0.0504 -0.734
## 3 0.0378 0.0755 -1.58 
## 4 0.0630 0.126  -0.970
## 5 0.101  0.201   1.60 
## # … with 495 more rows
```

```
## # A tibble: 500 x 3
##        x      m      y
##    <dbl>  <dbl>  <dbl>
## 1 0      0      -0.179
## 2 0      0      -0.179
## 3 0      0      -0.179
## 4 0.0126 0.0252 -0.903
## 5 0.0630 0.126  -0.970
## # … with 495 more rows
```
…
